<?xml version="1.0" encoding="UTF-8"?>
<osm version="0.6" generator="CGImap 0.8.3 (3423658 spike-06.openstreetmap.org)" copyright="OpenStreetMap and contributors" attribution="http://www.openstreetmap.org/copyright" license="http://opendatacommons.org/licenses/odbl/1-0/">
 <bounds minlat="41.5201100" minlon="0.6171800" maxlat="41.5236600" maxlon="0.6256000"/>
 <node id="585252791" visible="true" version="1" changeset="3344293" timestamp="2009-12-10T19:29:10Z" user="cardinal" uid="147072" lat="41.5250340" lon="0.6281430"/>
 <node id="585252792" visible="true" version="1" changeset="3344293" timestamp="2009-12-10T19:29:11Z" user="cardinal" uid="147072" lat="41.5249380" lon="0.6280330"/>
 <node id="585252793" visible="true" version="1" changeset="3344293" timestamp="2009-12-10T19:29:11Z" user="cardinal" uid="147072" lat="41.5242990" lon="0.6270750"/>
 <node id="585252794" visible="true" version="1" changeset="3344293" timestamp="2009-12-10T19:29:11Z" user="cardinal" uid="147072" lat="41.5238360" lon="0.6260920"/>
 <node id="585252795" visible="true" version="1" changeset="3344293" timestamp="2009-12-10T19:29:12Z" user="cardinal" uid="147072" lat="41.5231160" lon="0.6245200"/>
 <node id="585252796" visible="true" version="1" changeset="3344293" timestamp="2009-12-10T19:29:12Z" user="cardinal" uid="147072" lat="41.5226530" lon="0.6233560"/>
 <node id="585252797" visible="true" version="1" changeset="3344293" timestamp="2009-12-10T19:29:12Z" user="cardinal" uid="147072" lat="41.5226148" lon="0.6230518"/>
 <node id="585252798" visible="true" version="1" changeset="3344293" timestamp="2009-12-10T19:29:12Z" user="cardinal" uid="147072" lat="41.5226110" lon="0.6226960"/>
 <node id="585252799" visible="true" version="3" changeset="35541229" timestamp="2015-11-23T23:20:09Z" user="yopaseopor" uid="500572" lat="41.5229006" lon="0.6211042"/>
 <node id="585252800" visible="true" version="2" changeset="10642607" timestamp="2012-02-10T11:41:55Z" user="faireman" uid="601538" lat="41.5222712" lon="0.6189466"/>
 <node id="585252902" visible="true" version="7" changeset="73304884" timestamp="2019-08-13T12:03:08Z" user="thatmapper69420" uid="9863543" lat="41.5214162" lon="0.6200114">
  <tag k="admin_level" v="8"/>
  <tag k="capital" v="8"/>
  <tag k="ele" v="244"/>
  <tag k="name" v="Alfés"/>
  <tag k="place" v="village"/>
  <tag k="population" v="337"/>
  <tag k="population:date" v="2009"/>
  <tag k="ref:ine" v="25014000100"/>
  <tag k="source" v="Instituto Geográfico Nacional"/>
  <tag k="source:date" v="2011-06"/>
  <tag k="source:ele" v="MDT5"/>
  <tag k="source:file" v="http://centrodedescargas.cnig.es/CentroDescargas/equipamiento/BD_Municipios-Entidades.zip"/>
  <tag k="source:name" v="Nomenclátor Geográfico de Municipios y Entidades de Población"/>
  <tag k="website" v="http://alfes.ddl.net/layout_index.php"/>
  <tag k="wikidata" v="Q1772312"/>
  <tag k="wikipedia" v="ca:Alfés"/>
 </node>
 <node id="599552805" visible="true" version="2" changeset="35577234" timestamp="2015-11-25T18:30:02Z" user="yopaseopor" uid="500572" lat="41.5197524" lon="0.6247027"/>
 <node id="599552812" visible="true" version="3" changeset="35577234" timestamp="2015-11-25T18:30:02Z" user="yopaseopor" uid="500572" lat="41.5192074" lon="0.6201608"/>
 <node id="948714361" visible="true" version="6" changeset="97360492" timestamp="2021-01-12T09:33:37Z" user="kapazao_import" uid="8770019" lat="41.5236336" lon="0.6185611">
  <tag k="ele" v="258.40"/>
  <tag k="ign:latitud" v="41.5236336414400000"/>
  <tag k="ign:longitud" v="0.6185611151940000"/>
  <tag k="ign:red" v="Red Geodesica Nacional Convencional (ROI)"/>
  <tag k="man_made" v="survey_point"/>
  <tag k="name" v="Arias"/>
  <tag k="note" v="This is a point from an official geodetic network. Use it as a reference, but do NOT move it."/>
  <tag k="ref" v="38841"/>
  <tag k="source" v="Instituto Geográfico Nacional"/>
  <tag k="source:ref" v="ftp://ftp.geodesia.ign.es"/>
 </node>
 <node id="1626728200" visible="true" version="2" changeset="35577234" timestamp="2015-11-25T18:30:01Z" user="yopaseopor" uid="500572" lat="41.5203283" lon="0.6203058"/>
 <node id="1626728202" visible="true" version="1" changeset="10642607" timestamp="2012-02-10T11:41:43Z" user="faireman" uid="601538" lat="41.5191577" lon="0.6201697"/>
 <node id="1626728230" visible="true" version="2" changeset="10642607" timestamp="2012-02-10T11:43:09Z" user="faireman" uid="601538" lat="41.5230474" lon="0.6194563"/>
 <node id="1626728306" visible="true" version="2" changeset="10642607" timestamp="2012-02-10T11:43:10Z" user="faireman" uid="601538" lat="41.5228120" lon="0.6192739"/>
 <node id="1626728349" visible="true" version="1" changeset="10642607" timestamp="2012-02-10T11:41:48Z" user="faireman" uid="601538" lat="41.5195272" lon="0.6201697"/>
 <node id="1626728376" visible="true" version="2" changeset="10642607" timestamp="2012-02-10T11:43:09Z" user="faireman" uid="601538" lat="41.5231281" lon="0.6197277"/>
 <node id="1626728461" visible="true" version="2" changeset="16086967" timestamp="2013-05-11T21:40:02Z" user="yopaseopor" uid="500572" lat="41.5188716" lon="0.6200100"/>
 <node id="1627087862" visible="true" version="2" changeset="90776562" timestamp="2020-09-11T20:09:22Z" user="caminsperfer" uid="10187213" lat="41.5233453" lon="0.6202821"/>
 <node id="1627087939" visible="true" version="2" changeset="90776562" timestamp="2020-09-11T20:09:22Z" user="caminsperfer" uid="10187213" lat="41.5236148" lon="0.6203346"/>
 <node id="1627087970" visible="true" version="1" changeset="10644976" timestamp="2012-02-10T16:35:31Z" user="faireman" uid="601538" lat="41.5253149" lon="0.6175310"/>
 <node id="1627088390" visible="true" version="2" changeset="90776562" timestamp="2020-09-11T20:09:22Z" user="caminsperfer" uid="10187213" lat="41.5238010" lon="0.6042712"/>
 <node id="1627088892" visible="true" version="2" changeset="90776562" timestamp="2020-09-11T20:09:22Z" user="caminsperfer" uid="10187213" lat="41.5268443" lon="0.6223161"/>
 <node id="1627088899" visible="true" version="1" changeset="10644976" timestamp="2012-02-10T16:36:13Z" user="faireman" uid="601538" lat="41.5236956" lon="0.6200845"/>
 <node id="1627088915" visible="true" version="1" changeset="10644976" timestamp="2012-02-10T16:36:13Z" user="faireman" uid="601538" lat="41.5242900" lon="0.6190760"/>
 <node id="1627089035" visible="true" version="1" changeset="10644976" timestamp="2012-02-10T16:36:19Z" user="faireman" uid="601538" lat="41.5247302" lon="0.6183539"/>
 <node id="1627089142" visible="true" version="1" changeset="10644976" timestamp="2012-02-10T16:36:27Z" user="faireman" uid="601538" lat="41.5231558" lon="0.6204353"/>
 <node id="2300200677" visible="true" version="1" changeset="16086967" timestamp="2013-05-11T21:40:00Z" user="yopaseopor" uid="500572" lat="41.5187190" lon="0.6199430"/>
 <node id="2300200678" visible="true" version="1" changeset="16086967" timestamp="2013-05-11T21:40:00Z" user="yopaseopor" uid="500572" lat="41.5185824" lon="0.6198920"/>
 <node id="2300200679" visible="true" version="1" changeset="16086967" timestamp="2013-05-11T21:40:00Z" user="yopaseopor" uid="500572" lat="41.5183635" lon="0.6198813"/>
 <node id="2300200680" visible="true" version="1" changeset="16086967" timestamp="2013-05-11T21:40:00Z" user="yopaseopor" uid="500572" lat="41.5181044" lon="0.6198813"/>
 <node id="2300200681" visible="true" version="1" changeset="16086967" timestamp="2013-05-11T21:40:00Z" user="yopaseopor" uid="500572" lat="41.5178233" lon="0.6198866"/>
 <node id="2300200682" visible="true" version="1" changeset="16086967" timestamp="2013-05-11T21:40:00Z" user="yopaseopor" uid="500572" lat="41.5174618" lon="0.6198920"/>
 <node id="2300200683" visible="true" version="2" changeset="34685611" timestamp="2015-10-16T23:11:34Z" user="yopaseopor" uid="500572" lat="41.5171786" lon="0.6199047"/>
 <node id="2300200684" visible="true" version="2" changeset="34685611" timestamp="2015-10-16T23:11:34Z" user="yopaseopor" uid="500572" lat="41.5167990" lon="0.6199154"/>
 <node id="2300200685" visible="true" version="2" changeset="34685611" timestamp="2015-10-16T23:11:34Z" user="yopaseopor" uid="500572" lat="41.5166584" lon="0.6199114"/>
 <node id="2300200686" visible="true" version="2" changeset="34685611" timestamp="2015-10-16T23:11:34Z" user="yopaseopor" uid="500572" lat="41.5165405" lon="0.6199865"/>
 <node id="2300200687" visible="true" version="1" changeset="16086967" timestamp="2013-05-11T21:40:00Z" user="yopaseopor" uid="500572" lat="41.5164616" lon="0.6201468"/>
 <node id="2300250719" visible="true" version="1" changeset="16087517" timestamp="2013-05-11T22:33:53Z" user="yopaseopor" uid="500572" lat="41.5199369" lon="0.6242535"/>
 <node id="2300250720" visible="true" version="1" changeset="16087517" timestamp="2013-05-11T22:33:53Z" user="yopaseopor" uid="500572" lat="41.5200792" lon="0.6220290"/>
 <node id="2300250721" visible="true" version="1" changeset="16087517" timestamp="2013-05-11T22:33:53Z" user="yopaseopor" uid="500572" lat="41.5201255" lon="0.6224948"/>
 <node id="2300250722" visible="true" version="1" changeset="16087517" timestamp="2013-05-11T22:33:53Z" user="yopaseopor" uid="500572" lat="41.5201433" lon="0.6240301"/>
 <node id="2300250723" visible="true" version="1" changeset="16087517" timestamp="2013-05-11T22:33:53Z" user="yopaseopor" uid="500572" lat="41.5201611" lon="0.6215584"/>
 <node id="2300250724" visible="true" version="1" changeset="16087517" timestamp="2013-05-11T22:33:53Z" user="yopaseopor" uid="500572" lat="41.5201860" lon="0.6237544"/>
 <node id="2300250725" visible="true" version="1" changeset="16087517" timestamp="2013-05-11T22:33:53Z" user="yopaseopor" uid="500572" lat="41.5201860" lon="0.6238970"/>
 <node id="2300250726" visible="true" version="1" changeset="16087517" timestamp="2013-05-11T22:33:53Z" user="yopaseopor" uid="500572" lat="41.5201895" lon="0.6232553"/>
 <node id="2300250727" visible="true" version="1" changeset="16087517" timestamp="2013-05-11T22:33:53Z" user="yopaseopor" uid="500572" lat="41.5202144" lon="0.6228370"/>
 <node id="2300250728" visible="true" version="1" changeset="16087517" timestamp="2013-05-11T22:33:53Z" user="yopaseopor" uid="500572" lat="41.5204280" lon="0.6208549"/>
 <node id="2300250729" visible="true" version="1" changeset="16087517" timestamp="2013-05-11T22:33:53Z" user="yopaseopor" uid="500572" lat="41.5205063" lon="0.6238875"/>
 <node id="2300250730" visible="true" version="1" changeset="16087517" timestamp="2013-05-11T22:33:53Z" user="yopaseopor" uid="500572" lat="41.5207198" lon="0.6203653"/>
 <node id="2300250731" visible="true" version="1" changeset="16087517" timestamp="2013-05-11T22:33:53Z" user="yopaseopor" uid="500572" lat="41.5207661" lon="0.6238494"/>
 <node id="2300250732" visible="true" version="2" changeset="35577234" timestamp="2015-11-25T18:30:01Z" user="yopaseopor" uid="500572" lat="41.5209176" lon="0.6238445"/>
 <node id="2300250733" visible="true" version="1" changeset="16087517" timestamp="2013-05-11T22:33:53Z" user="yopaseopor" uid="500572" lat="41.5209511" lon="0.6204224"/>
 <node id="2300250736" visible="true" version="1" changeset="16087517" timestamp="2013-05-11T22:33:53Z" user="yopaseopor" uid="500572" lat="41.5210935" lon="0.6239397"/>
 <node id="2300250737" visible="true" version="1" changeset="16087517" timestamp="2013-05-11T22:33:53Z" user="yopaseopor" uid="500572" lat="41.5211362" lon="0.6185306"/>
 <node id="2300250738" visible="true" version="1" changeset="16087517" timestamp="2013-05-11T22:33:53Z" user="yopaseopor" uid="500572" lat="41.5211397" lon="0.6243961"/>
 <node id="2300250739" visible="true" version="1" changeset="16087517" timestamp="2013-05-11T22:33:53Z" user="yopaseopor" uid="500572" lat="41.5211611" lon="0.6242487"/>
 <node id="2300250740" visible="true" version="1" changeset="16087517" timestamp="2013-05-11T22:33:53Z" user="yopaseopor" uid="500572" lat="41.5211682" lon="0.6205507"/>
 <node id="2300250741" visible="true" version="1" changeset="16087517" timestamp="2013-05-11T22:33:53Z" user="yopaseopor" uid="500572" lat="41.5211753" lon="0.6237211"/>
 <node id="2300250742" visible="true" version="1" changeset="16087517" timestamp="2013-05-11T22:33:53Z" user="yopaseopor" uid="500572" lat="41.5212038" lon="0.6190012"/>
 <node id="2300250743" visible="true" version="1" changeset="16087517" timestamp="2013-05-11T22:33:53Z" user="yopaseopor" uid="500572" lat="41.5212056" lon="0.6190819"/>
 <node id="2300250744" visible="true" version="1" changeset="16087517" timestamp="2013-05-11T22:33:53Z" user="yopaseopor" uid="500572" lat="41.5212073" lon="0.6187017"/>
 <node id="2300250745" visible="true" version="1" changeset="16087517" timestamp="2013-05-11T22:33:53Z" user="yopaseopor" uid="500572" lat="41.5212073" lon="0.6191628"/>
 <node id="2300250746" visible="true" version="2" changeset="35577234" timestamp="2015-11-25T18:30:01Z" user="yopaseopor" uid="500572" lat="41.5212693" lon="0.6196237"/>
 <node id="2300250747" visible="true" version="1" changeset="16087517" timestamp="2013-05-11T22:33:53Z" user="yopaseopor" uid="500572" lat="41.5212892" lon="0.6205935"/>
 <node id="2300250748" visible="true" version="1" changeset="16087517" timestamp="2013-05-11T22:33:53Z" user="yopaseopor" uid="500572" lat="41.5212892" lon="0.6207504"/>
 <node id="2300250749" visible="true" version="1" changeset="16087517" timestamp="2013-05-11T22:33:53Z" user="yopaseopor" uid="500572" lat="41.5213960" lon="0.6210450"/>
 <node id="2300250750" visible="true" version="2" changeset="35577234" timestamp="2015-11-25T18:30:01Z" user="yopaseopor" uid="500572" lat="41.5214515" lon="0.6195071"/>
 <node id="2300250751" visible="true" version="1" changeset="16087517" timestamp="2013-05-11T22:33:53Z" user="yopaseopor" uid="500572" lat="41.5213995" lon="0.6215251"/>
 <node id="2300250752" visible="true" version="1" changeset="16087517" timestamp="2013-05-11T22:33:53Z" user="yopaseopor" uid="500572" lat="41.5214066" lon="0.6221383"/>
 <node id="2300250753" visible="true" version="1" changeset="16087517" timestamp="2013-05-11T22:33:53Z" user="yopaseopor" uid="500572" lat="41.5214636" lon="0.6235025"/>
 <node id="2300250754" visible="true" version="1" changeset="16087517" timestamp="2013-05-11T22:33:53Z" user="yopaseopor" uid="500572" lat="41.5214885" lon="0.6207694"/>
 <node id="2300250755" visible="true" version="1" changeset="16087517" timestamp="2013-05-11T22:33:53Z" user="yopaseopor" uid="500572" lat="41.5214916" lon="0.6199063"/>
 <node id="2300250756" visible="true" version="1" changeset="16087517" timestamp="2013-05-11T22:33:53Z" user="yopaseopor" uid="500572" lat="41.5215170" lon="0.6210070"/>
 <node id="2300250757" visible="true" version="1" changeset="16087517" timestamp="2013-05-11T22:33:53Z" user="yopaseopor" uid="500572" lat="41.5215454" lon="0.6200944"/>
 <node id="2300250758" visible="true" version="1" changeset="16087517" timestamp="2013-05-11T22:33:53Z" user="yopaseopor" uid="500572" lat="41.5215561" lon="0.6219054"/>
 <node id="2300250759" visible="true" version="1" changeset="16087517" timestamp="2013-05-11T22:33:53Z" user="yopaseopor" uid="500572" lat="41.5215679" lon="0.6221293"/>
 <node id="2300250760" visible="true" version="1" changeset="16087517" timestamp="2013-05-11T22:33:54Z" user="yopaseopor" uid="500572" lat="41.5215846" lon="0.6241964"/>
 <node id="2300250761" visible="true" version="1" changeset="16087517" timestamp="2013-05-11T22:33:54Z" user="yopaseopor" uid="500572" lat="41.5215917" lon="0.6225803"/>
 <node id="2300250762" visible="true" version="1" changeset="16087517" timestamp="2013-05-11T22:33:54Z" user="yopaseopor" uid="500572" lat="41.5215990" lon="0.6207578"/>
 <node id="2300250763" visible="true" version="1" changeset="16087517" timestamp="2013-05-11T22:33:54Z" user="yopaseopor" uid="500572" lat="41.5216059" lon="0.6216059"/>
 <node id="2300250764" visible="true" version="1" changeset="16087517" timestamp="2013-05-11T22:33:54Z" user="yopaseopor" uid="500572" lat="41.5216380" lon="0.6228893"/>
 <node id="2300250765" visible="true" version="1" changeset="16087517" timestamp="2013-05-11T22:33:54Z" user="yopaseopor" uid="500572" lat="41.5216807" lon="0.6235120"/>
 <node id="2300250766" visible="true" version="1" changeset="16087517" timestamp="2013-05-11T22:33:54Z" user="yopaseopor" uid="500572" lat="41.5217091" lon="0.6224853"/>
 <node id="2300250767" visible="true" version="1" changeset="16087517" timestamp="2013-05-11T22:33:54Z" user="yopaseopor" uid="500572" lat="41.5217091" lon="0.6225376"/>
 <node id="2300250768" visible="true" version="1" changeset="16087517" timestamp="2013-05-11T22:33:54Z" user="yopaseopor" uid="500572" lat="41.5217225" lon="0.6233577"/>
 <node id="2300250769" visible="true" version="1" changeset="16087517" timestamp="2013-05-11T22:33:54Z" user="yopaseopor" uid="500572" lat="41.5217696" lon="0.6191675"/>
 <node id="2300250770" visible="true" version="2" changeset="35577234" timestamp="2015-11-25T18:30:01Z" user="yopaseopor" uid="500572" lat="41.5217863" lon="0.6192469"/>
 <node id="2300250771" visible="true" version="1" changeset="16087517" timestamp="2013-05-11T22:33:54Z" user="yopaseopor" uid="500572" lat="41.5218230" lon="0.6219339"/>
 <node id="2300250772" visible="true" version="1" changeset="16087517" timestamp="2013-05-11T22:33:54Z" user="yopaseopor" uid="500572" lat="41.5218367" lon="0.6191836"/>
 <node id="2300250773" visible="true" version="2" changeset="35577234" timestamp="2015-11-25T18:30:01Z" user="yopaseopor" uid="500572" lat="41.5218419" lon="0.6211075"/>
 <node id="2300250774" visible="true" version="2" changeset="35577234" timestamp="2015-11-25T18:30:01Z" user="yopaseopor" uid="500572" lat="41.5218406" lon="0.6192225"/>
 <node id="2300250775" visible="true" version="1" changeset="16087517" timestamp="2013-05-11T22:33:54Z" user="yopaseopor" uid="500572" lat="41.5218586" lon="0.6198663"/>
 <node id="2300250776" visible="true" version="2" changeset="35577234" timestamp="2015-11-25T18:30:01Z" user="yopaseopor" uid="500572" lat="41.5219055" lon="0.6226306"/>
 <node id="2300250777" visible="true" version="1" changeset="16087517" timestamp="2013-05-11T22:33:54Z" user="yopaseopor" uid="500572" lat="41.5219155" lon="0.6178366"/>
 <node id="2300250778" visible="true" version="2" changeset="35577234" timestamp="2015-11-25T18:30:01Z" user="yopaseopor" uid="500572" lat="41.5219127" lon="0.6191697"/>
 <node id="2300250779" visible="true" version="1" changeset="16087517" timestamp="2013-05-11T22:33:54Z" user="yopaseopor" uid="500572" lat="41.5219227" lon="0.6188015"/>
 <node id="2300250780" visible="true" version="1" changeset="16087517" timestamp="2013-05-11T22:33:54Z" user="yopaseopor" uid="500572" lat="41.5219298" lon="0.6202132"/>
 <node id="2300250781" visible="true" version="1" changeset="16087517" timestamp="2013-05-11T22:33:54Z" user="yopaseopor" uid="500572" lat="41.5219547" lon="0.6205697"/>
 <node id="2300250782" visible="true" version="1" changeset="16087517" timestamp="2013-05-11T22:33:54Z" user="yopaseopor" uid="500572" lat="41.5219560" lon="0.6207203"/>
 <node id="2300250783" visible="true" version="1" changeset="16087517" timestamp="2013-05-11T22:33:54Z" user="yopaseopor" uid="500572" lat="41.5219582" lon="0.6181884"/>
 <node id="2300250784" visible="true" version="1" changeset="16087517" timestamp="2013-05-11T22:33:54Z" user="yopaseopor" uid="500572" lat="41.5219618" lon="0.6224853"/>
 <node id="2300250785" visible="true" version="1" changeset="16087517" timestamp="2013-05-11T22:33:54Z" user="yopaseopor" uid="500572" lat="41.5220187" lon="0.6173185"/>
 <node id="2300250786" visible="true" version="1" changeset="16087517" timestamp="2013-05-11T22:33:54Z" user="yopaseopor" uid="500572" lat="41.5221041" lon="0.6194670"/>
 <node id="2300250787" visible="true" version="1" changeset="16087517" timestamp="2013-05-11T22:33:54Z" user="yopaseopor" uid="500572" lat="41.5221077" lon="0.6213445"/>
 <node id="2300250788" visible="true" version="1" changeset="16087517" timestamp="2013-05-11T22:33:54Z" user="yopaseopor" uid="500572" lat="41.5221507" lon="0.6195511"/>
 <node id="2300250789" visible="true" version="2" changeset="35577234" timestamp="2015-11-25T18:30:01Z" user="yopaseopor" uid="500572" lat="41.5220642" lon="0.6207134"/>
 <node id="2300250790" visible="true" version="1" changeset="16087517" timestamp="2013-05-11T22:33:54Z" user="yopaseopor" uid="500572" lat="41.5221753" lon="0.6221811"/>
 <node id="2300250791" visible="true" version="1" changeset="16087517" timestamp="2013-05-11T22:33:54Z" user="yopaseopor" uid="500572" lat="41.5221860" lon="0.6215917"/>
 <node id="2300250792" visible="true" version="2" changeset="35577234" timestamp="2015-11-25T18:30:01Z" user="yopaseopor" uid="500572" lat="41.5222647" lon="0.6194055"/>
 <node id="2300250793" visible="true" version="1" changeset="16087517" timestamp="2013-05-11T22:33:55Z" user="yopaseopor" uid="500572" lat="41.5222251" lon="0.6196856"/>
 <node id="2300250794" visible="true" version="1" changeset="16087517" timestamp="2013-05-11T22:33:55Z" user="yopaseopor" uid="500572" lat="41.5223248" lon="0.6217865"/>
 <node id="2300250795" visible="true" version="1" changeset="16087517" timestamp="2013-05-11T22:33:55Z" user="yopaseopor" uid="500572" lat="41.5223283" lon="0.6206886"/>
 <node id="2300250796" visible="true" version="1" changeset="16087517" timestamp="2013-05-11T22:33:55Z" user="yopaseopor" uid="500572" lat="41.5223461" lon="0.6202465"/>
 <node id="2300250797" visible="true" version="2" changeset="35577234" timestamp="2015-11-25T18:30:01Z" user="yopaseopor" uid="500572" lat="41.5223559" lon="0.6194018"/>
 <node id="2300250798" visible="true" version="1" changeset="16087517" timestamp="2013-05-11T22:33:55Z" user="yopaseopor" uid="500572" lat="41.5223924" lon="0.6201610"/>
 <node id="2300250799" visible="true" version="1" changeset="16087517" timestamp="2013-05-11T22:33:55Z" user="yopaseopor" uid="500572" lat="41.5224102" lon="0.6205460"/>
 <node id="2300250800" visible="true" version="1" changeset="16087517" timestamp="2013-05-11T22:33:55Z" user="yopaseopor" uid="500572" lat="41.5224108" lon="0.6206836"/>
 <node id="2300250801" visible="true" version="1" changeset="16087517" timestamp="2013-05-11T22:33:55Z" user="yopaseopor" uid="500572" lat="41.5224364" lon="0.6214175"/>
 <node id="2300250802" visible="true" version="1" changeset="16087517" timestamp="2013-05-11T22:33:55Z" user="yopaseopor" uid="500572" lat="41.5224529" lon="0.6196714"/>
 <node id="2300250803" visible="true" version="2" changeset="35577234" timestamp="2015-11-25T18:30:01Z" user="yopaseopor" uid="500572" lat="41.5224475" lon="0.6201480"/>
 <node id="2300250804" visible="true" version="1" changeset="16087517" timestamp="2013-05-11T22:33:55Z" user="yopaseopor" uid="500572" lat="41.5224671" lon="0.6213160"/>
 <node id="2300250805" visible="true" version="1" changeset="16087517" timestamp="2013-05-11T22:33:55Z" user="yopaseopor" uid="500572" lat="41.5225205" lon="0.6218056"/>
 <node id="2300250806" visible="true" version="1" changeset="16087517" timestamp="2013-05-11T22:33:55Z" user="yopaseopor" uid="500572" lat="41.5225205" lon="0.6227372"/>
 <node id="2300250807" visible="true" version="1" changeset="16087517" timestamp="2013-05-11T22:33:55Z" user="yopaseopor" uid="500572" lat="41.5225205" lon="0.6230509"/>
 <node id="2300250808" visible="true" version="1" changeset="16087517" timestamp="2013-05-11T22:33:55Z" user="yopaseopor" uid="500572" lat="41.5225632" lon="0.6206743"/>
 <node id="2300250809" visible="true" version="1" changeset="16087517" timestamp="2013-05-11T22:33:55Z" user="yopaseopor" uid="500572" lat="41.5226130" lon="0.6204129"/>
 <node id="2300250810" visible="true" version="2" changeset="35577234" timestamp="2015-11-25T18:30:01Z" user="yopaseopor" uid="500572" lat="41.5226219" lon="0.6199909"/>
 <node id="2300250811" visible="true" version="1" changeset="16087517" timestamp="2013-05-11T22:33:55Z" user="yopaseopor" uid="500572" lat="41.5226273" lon="0.6212067"/>
 <node id="2300250812" visible="true" version="1" changeset="16087517" timestamp="2013-05-11T22:33:55Z" user="yopaseopor" uid="500572" lat="41.5226344" lon="0.6206078"/>
 <node id="2300250813" visible="true" version="1" changeset="16087517" timestamp="2013-05-11T22:33:55Z" user="yopaseopor" uid="500572" lat="41.5226380" lon="0.6209120"/>
 <node id="2300250814" visible="true" version="1" changeset="16087517" timestamp="2013-05-11T22:33:55Z" user="yopaseopor" uid="500572" lat="41.5226776" lon="0.6199178"/>
 <node id="2300250815" visible="true" version="2" changeset="35577234" timestamp="2015-11-25T18:30:02Z" user="yopaseopor" uid="500572" lat="41.5227028" lon="0.6201969"/>
 <node id="2300250816" visible="true" version="1" changeset="16087517" timestamp="2013-05-11T22:33:55Z" user="yopaseopor" uid="500572" lat="41.5227198" lon="0.6209262"/>
 <node id="2300250817" visible="true" version="1" changeset="16087517" timestamp="2013-05-11T22:33:55Z" user="yopaseopor" uid="500572" lat="41.5227483" lon="0.6197902"/>
 <node id="2300250818" visible="true" version="1" changeset="16087517" timestamp="2013-05-11T22:33:55Z" user="yopaseopor" uid="500572" lat="41.5228266" lon="0.6207313"/>
 <node id="2300250819" visible="true" version="1" changeset="16087517" timestamp="2013-05-11T22:33:55Z" user="yopaseopor" uid="500572" lat="41.5229333" lon="0.6200469"/>
 <node id="2300250820" visible="true" version="1" changeset="16087517" timestamp="2013-05-11T22:33:55Z" user="yopaseopor" uid="500572" lat="41.5229754" lon="0.6194005"/>
 <node id="2300250821" visible="true" version="1" changeset="16087517" timestamp="2013-05-11T22:33:55Z" user="yopaseopor" uid="500572" lat="41.5230330" lon="0.6197902"/>
 <node id="2300250822" visible="true" version="1" changeset="16087517" timestamp="2013-05-11T22:33:55Z" user="yopaseopor" uid="500572" lat="41.5230784" lon="0.6195605"/>
 <node id="2300250823" visible="true" version="1" changeset="16087517" timestamp="2013-05-11T22:33:55Z" user="yopaseopor" uid="500572" lat="41.5230970" lon="0.6187350"/>
 <node id="2300250824" visible="true" version="1" changeset="16087517" timestamp="2013-05-11T22:33:55Z" user="yopaseopor" uid="500572" lat="41.5231611" lon="0.6184688"/>
 <node id="2300250825" visible="true" version="1" changeset="16087517" timestamp="2013-05-11T22:33:55Z" user="yopaseopor" uid="500572" lat="41.5233141" lon="0.6191913"/>
 <node id="2300250826" visible="true" version="1" changeset="16087517" timestamp="2013-05-11T22:33:55Z" user="yopaseopor" uid="500572" lat="41.5234102" lon="0.6180173"/>
 <node id="2300250827" visible="true" version="1" changeset="16087517" timestamp="2013-05-11T22:33:55Z" user="yopaseopor" uid="500572" lat="41.5234315" lon="0.6177891"/>
 <node id="2300250828" visible="true" version="1" changeset="16087517" timestamp="2013-05-11T22:33:55Z" user="yopaseopor" uid="500572" lat="41.5234956" lon="0.6175657"/>
 <node id="2300250835" visible="true" version="1" changeset="16087517" timestamp="2013-05-11T22:33:55Z" user="yopaseopor" uid="500572" lat="41.5247779" lon="0.6277929"/>
 <node id="2300250849" visible="true" version="2" changeset="72765459" timestamp="2019-07-29T11:20:29Z" user="SerV" uid="708973" lat="41.5251712" lon="0.6282983"/>
 <node id="3752918432" visible="true" version="1" changeset="34162906" timestamp="2015-09-21T14:03:30Z" user="ratrun" uid="474183" lat="41.5187887" lon="0.6199736"/>
 <node id="3789803864" visible="true" version="1" changeset="34685611" timestamp="2015-10-16T23:11:22Z" user="yopaseopor" uid="500572" lat="41.5164962" lon="0.6200482"/>
 <node id="3789804078" visible="true" version="1" changeset="34685611" timestamp="2015-10-16T23:11:23Z" user="yopaseopor" uid="500572" lat="41.5251403" lon="0.6282418"/>
 <node id="3859401811" visible="true" version="1" changeset="35577234" timestamp="2015-11-25T18:29:55Z" user="yopaseopor" uid="500572" lat="41.5214342" lon="0.6193167">
  <tag k="amenity" v="townhall"/>
  <tag k="name" v="Ajuntament d'Alfés"/>
 </node>
 <node id="3859401813" visible="true" version="1" changeset="35577234" timestamp="2015-11-25T18:29:55Z" user="yopaseopor" uid="500572" lat="41.5226803" lon="0.6189563">
  <tag k="name" v="Cal Bonica"/>
  <tag k="place" v="isolated_dwelling"/>
 </node>
 <node id="3859401814" visible="true" version="1" changeset="35577234" timestamp="2015-11-25T18:29:55Z" user="yopaseopor" uid="500572" lat="41.5219975" lon="0.6192438">
  <tag k="name" v="Cal Florentí"/>
  <tag k="place" v="isolated_dwelling"/>
 </node>
 <node id="3859401815" visible="true" version="1" changeset="35577234" timestamp="2015-11-25T18:29:55Z" user="yopaseopor" uid="500572" lat="41.5228635" lon="0.6197103">
  <tag k="name" v="Cal Martí"/>
  <tag k="place" v="isolated_dwelling"/>
 </node>
 <node id="3859401818" visible="true" version="2" changeset="57380164" timestamp="2018-03-21T10:34:27Z" user="Jesús Gómez" uid="6389" lat="41.5224644" lon="0.6205436">
  <tag k="amenity" v="clinic"/>
  <tag k="name" v="Centre mèdic d'Alfés"/>
 </node>
 <node id="3859401819" visible="true" version="1" changeset="35577234" timestamp="2015-11-25T18:29:55Z" user="yopaseopor" uid="500572" lat="41.5217844" lon="0.6190049">
  <tag k="man_made" v="works"/>
  <tag k="name" v="Cooperativa del Camp Sant Salvador d'Alfés"/>
  <tag k="shop" v="farm"/>
  <tag k="type" v="agricultural_cooperative"/>
 </node>
 <node id="3859401820" visible="true" version="3" changeset="55208888" timestamp="2018-01-06T11:35:23Z" user="pedrobv" uid="581863" lat="41.5227406" lon="0.6205406">
  <tag k="amenity" v="place_of_worship"/>
  <tag k="name" v="Sant Pere"/>
  <tag k="religion" v="christian"/>
 </node>
 <node id="3859401821" visible="true" version="1" changeset="35577234" timestamp="2015-11-25T18:29:55Z" user="yopaseopor" uid="500572" lat="41.5177088" lon="0.6206546"/>
 <node id="3859401822" visible="true" version="1" changeset="35577234" timestamp="2015-11-25T18:29:55Z" user="yopaseopor" uid="500572" lat="41.5177393" lon="0.6190888"/>
 <node id="3859401823" visible="true" version="1" changeset="35577234" timestamp="2015-11-25T18:29:55Z" user="yopaseopor" uid="500572" lat="41.5177900" lon="0.6199700"/>
 <node id="3859401824" visible="true" version="1" changeset="35577234" timestamp="2015-11-25T18:29:55Z" user="yopaseopor" uid="500572" lat="41.5178002" lon="0.6211765"/>
 <node id="3859401825" visible="true" version="1" changeset="35577234" timestamp="2015-11-25T18:29:55Z" user="yopaseopor" uid="500572" lat="41.5180996" lon="0.6211087"/>
 <node id="3859401826" visible="true" version="1" changeset="35577234" timestamp="2015-11-25T18:29:55Z" user="yopaseopor" uid="500572" lat="41.5181148" lon="0.6214341"/>
 <node id="3859401827" visible="true" version="1" changeset="35577234" timestamp="2015-11-25T18:29:55Z" user="yopaseopor" uid="500572" lat="41.5183483" lon="0.6213798"/>
 <node id="3859401828" visible="true" version="1" changeset="35577234" timestamp="2015-11-25T18:29:55Z" user="yopaseopor" uid="500572" lat="41.5183940" lon="0.6215222"/>
 <node id="3859401829" visible="true" version="1" changeset="35577234" timestamp="2015-11-25T18:29:55Z" user="yopaseopor" uid="500572" lat="41.5184244" lon="0.6199564"/>
 <node id="3859401830" visible="true" version="1" changeset="35577234" timestamp="2015-11-25T18:29:55Z" user="yopaseopor" uid="500572" lat="41.5184346" lon="0.6202818"/>
 <node id="3859401831" visible="true" version="1" changeset="35577234" timestamp="2015-11-25T18:29:55Z" user="yopaseopor" uid="500572" lat="41.5185412" lon="0.6215018"/>
 <node id="3859401832" visible="true" version="1" changeset="35577234" timestamp="2015-11-25T18:29:55Z" user="yopaseopor" uid="500572" lat="41.5186376" lon="0.6222746"/>
 <node id="3859401833" visible="true" version="1" changeset="35577234" timestamp="2015-11-25T18:29:55Z" user="yopaseopor" uid="500572" lat="41.5188254" lon="0.6222746"/>
 <node id="3859401834" visible="true" version="1" changeset="35577234" timestamp="2015-11-25T18:29:55Z" user="yopaseopor" uid="500572" lat="41.5188812" lon="0.6231490"/>
 <node id="3859401835" visible="true" version="1" changeset="35577234" timestamp="2015-11-25T18:29:55Z" user="yopaseopor" uid="500572" lat="41.5189776" lon="0.6184855"/>
 <node id="3859401837" visible="true" version="1" changeset="35577234" timestamp="2015-11-25T18:29:55Z" user="yopaseopor" uid="500572" lat="41.5192314" lon="0.6248842"/>
 <node id="3859401838" visible="true" version="1" changeset="35577234" timestamp="2015-11-25T18:29:55Z" user="yopaseopor" uid="500572" lat="41.5193735" lon="0.6230269"/>
 <node id="3859401839" visible="true" version="1" changeset="35577234" timestamp="2015-11-25T18:29:55Z" user="yopaseopor" uid="500572" lat="41.5193887" lon="0.6184042"/>
 <node id="3859401840" visible="true" version="1" changeset="35577234" timestamp="2015-11-25T18:29:55Z" user="yopaseopor" uid="500572" lat="41.5193938" lon="0.6242335"/>
 <node id="3859401841" visible="true" version="1" changeset="35577234" timestamp="2015-11-25T18:29:55Z" user="yopaseopor" uid="500572" lat="41.5197298" lon="0.6185352"/>
 <node id="3859401842" visible="true" version="1" changeset="35577234" timestamp="2015-11-25T18:29:56Z" user="yopaseopor" uid="500572" lat="41.5198607" lon="0.6247622"/>
 <node id="3859401843" visible="true" version="1" changeset="35577234" timestamp="2015-11-25T18:29:56Z" user="yopaseopor" uid="500572" lat="41.5198662" lon="0.6186071"/>
 <node id="3859401844" visible="true" version="1" changeset="35577234" timestamp="2015-11-25T18:29:56Z" user="yopaseopor" uid="500572" lat="41.5198979" lon="0.6202327"/>
 <node id="3859401845" visible="true" version="1" changeset="35577234" timestamp="2015-11-25T18:29:56Z" user="yopaseopor" uid="500572" lat="41.5201855" lon="0.6240708"/>
 <node id="3859401846" visible="true" version="1" changeset="35577234" timestamp="2015-11-25T18:29:56Z" user="yopaseopor" uid="500572" lat="41.5202860" lon="0.6188611"/>
 <node id="3859401847" visible="true" version="1" changeset="35577234" timestamp="2015-11-25T18:29:56Z" user="yopaseopor" uid="500572" lat="41.5203040" lon="0.6189570"/>
 <node id="3859401848" visible="true" version="1" changeset="35577234" timestamp="2015-11-25T18:29:56Z" user="yopaseopor" uid="500572" lat="41.5204189" lon="0.6180111"/>
 <node id="3859401849" visible="true" version="1" changeset="35577234" timestamp="2015-11-25T18:29:56Z" user="yopaseopor" uid="500572" lat="41.5205407" lon="0.6159844"/>
 <node id="3859401850" visible="true" version="1" changeset="35577234" timestamp="2015-11-25T18:29:56Z" user="yopaseopor" uid="500572" lat="41.5207691" lon="0.6176925"/>
 <node id="3859401851" visible="true" version="1" changeset="35577234" timestamp="2015-11-25T18:29:56Z" user="yopaseopor" uid="500572" lat="41.5209619" lon="0.6239556"/>
 <node id="3859401852" visible="true" version="1" changeset="35577234" timestamp="2015-11-25T18:29:56Z" user="yopaseopor" uid="500572" lat="41.5210887" lon="0.6237988"/>
 <node id="3859401853" visible="true" version="2" changeset="86251316" timestamp="2020-06-05T15:15:37Z" user="jonashoffmann" uid="9965503" lat="41.5215997" lon="0.6246530"/>
 <node id="3859401854" visible="true" version="1" changeset="35577234" timestamp="2015-11-25T18:29:56Z" user="yopaseopor" uid="500572" lat="41.5211636" lon="0.6237523"/>
 <node id="3859401855" visible="true" version="1" changeset="35577234" timestamp="2015-11-25T18:29:56Z" user="yopaseopor" uid="500572" lat="41.5212664" lon="0.6244029"/>
 <node id="3859401856" visible="true" version="1" changeset="35577234" timestamp="2015-11-25T18:29:56Z" user="yopaseopor" uid="500572" lat="41.5214799" lon="0.6195709"/>
 <node id="3859401957" visible="true" version="1" changeset="35577234" timestamp="2015-11-25T18:29:56Z" user="yopaseopor" uid="500572" lat="41.5214964" lon="0.6198081"/>
 <node id="3859401958" visible="true" version="1" changeset="35577234" timestamp="2015-11-25T18:29:56Z" user="yopaseopor" uid="500572" lat="41.5215294" lon="0.6198657"/>
 <node id="3859401959" visible="true" version="1" changeset="35577234" timestamp="2015-11-25T18:29:56Z" user="yopaseopor" uid="500572" lat="41.5215822" lon="0.6208995"/>
 <node id="3859401960" visible="true" version="1" changeset="35577234" timestamp="2015-11-25T18:29:56Z" user="yopaseopor" uid="500572" lat="41.5215962" lon="0.6208486"/>
 <node id="3859401961" visible="true" version="1" changeset="35577234" timestamp="2015-11-25T18:29:56Z" user="yopaseopor" uid="500572" lat="41.5216038" lon="0.6209588"/>
 <node id="3859401962" visible="true" version="1" changeset="35577234" timestamp="2015-11-25T18:29:56Z" user="yopaseopor" uid="500572" lat="41.5216623" lon="0.6160454"/>
 <node id="3859401963" visible="true" version="1" changeset="35577234" timestamp="2015-11-25T18:29:56Z" user="yopaseopor" uid="500572" lat="41.5217232" lon="0.6243351"/>
 <node id="3859401964" visible="true" version="1" changeset="35577234" timestamp="2015-11-25T18:29:56Z" user="yopaseopor" uid="500572" lat="41.5217590" lon="0.6198522"/>
 <node id="3859401965" visible="true" version="1" changeset="35577234" timestamp="2015-11-25T18:29:56Z" user="yopaseopor" uid="500572" lat="41.5217653" lon="0.6193760"/>
 <node id="3859401966" visible="true" version="1" changeset="35577234" timestamp="2015-11-25T18:29:56Z" user="yopaseopor" uid="500572" lat="41.5217916" lon="0.6210011"/>
 <node id="3859401967" visible="true" version="1" changeset="35577234" timestamp="2015-11-25T18:29:56Z" user="yopaseopor" uid="500572" lat="41.5218313" lon="0.6197997"/>
 <node id="3859401968" visible="true" version="1" changeset="35577234" timestamp="2015-11-25T18:29:56Z" user="yopaseopor" uid="500572" lat="41.5218551" lon="0.6242945"/>
 <node id="3859401969" visible="true" version="1" changeset="35577234" timestamp="2015-11-25T18:29:56Z" user="yopaseopor" uid="500572" lat="41.5218652" lon="0.6209215"/>
 <node id="3859401970" visible="true" version="1" changeset="35577234" timestamp="2015-11-25T18:29:56Z" user="yopaseopor" uid="500572" lat="41.5218833" lon="0.6229295"/>
 <node id="3859401971" visible="true" version="1" changeset="35577234" timestamp="2015-11-25T18:29:56Z" user="yopaseopor" uid="500572" lat="41.5219159" lon="0.6208097"/>
 <node id="3859401972" visible="true" version="1" changeset="35577234" timestamp="2015-11-25T18:29:56Z" user="yopaseopor" uid="500572" lat="41.5219179" lon="0.6218000"/>
 <node id="3859401973" visible="true" version="1" changeset="35577234" timestamp="2015-11-25T18:29:56Z" user="yopaseopor" uid="500572" lat="41.5219262" lon="0.6230337"/>
 <node id="3859401974" visible="true" version="1" changeset="35577234" timestamp="2015-11-25T18:29:56Z" user="yopaseopor" uid="500572" lat="41.5219273" lon="0.6208435"/>
 <node id="3859401975" visible="true" version="1" changeset="35577234" timestamp="2015-11-25T18:29:56Z" user="yopaseopor" uid="500572" lat="41.5219617" lon="0.6235150"/>
 <node id="3859401976" visible="true" version="1" changeset="35577234" timestamp="2015-11-25T18:29:56Z" user="yopaseopor" uid="500572" lat="41.5220378" lon="0.6177942"/>
 <node id="3859401977" visible="true" version="1" changeset="35577234" timestamp="2015-11-25T18:29:56Z" user="yopaseopor" uid="500572" lat="41.5220835" lon="0.6228778"/>
 <node id="3859401978" visible="true" version="1" changeset="35577234" timestamp="2015-11-25T18:29:56Z" user="yopaseopor" uid="500572" lat="41.5220965" lon="0.6190235"/>
 <node id="3859401979" visible="true" version="1" changeset="35577234" timestamp="2015-11-25T18:29:56Z" user="yopaseopor" uid="500572" lat="41.5221736" lon="0.6193820"/>
 <node id="3859401980" visible="true" version="1" changeset="35577234" timestamp="2015-11-25T18:29:56Z" user="yopaseopor" uid="500572" lat="41.5222068" lon="0.6193640"/>
 <node id="3859401981" visible="true" version="1" changeset="35577234" timestamp="2015-11-25T18:29:56Z" user="yopaseopor" uid="500572" lat="41.5222265" lon="0.6194263"/>
 <node id="3859401982" visible="true" version="1" changeset="35577234" timestamp="2015-11-25T18:29:56Z" user="yopaseopor" uid="500572" lat="41.5223220" lon="0.6163233"/>
 <node id="3859401983" visible="true" version="1" changeset="35577234" timestamp="2015-11-25T18:29:56Z" user="yopaseopor" uid="500572" lat="41.5223220" lon="0.6223152"/>
 <node id="3859401984" visible="true" version="1" changeset="35577234" timestamp="2015-11-25T18:29:56Z" user="yopaseopor" uid="500572" lat="41.5224187" lon="0.6190015"/>
 <node id="3859401985" visible="true" version="1" changeset="35577234" timestamp="2015-11-25T18:29:56Z" user="yopaseopor" uid="500572" lat="41.5224975" lon="0.6203130"/>
 <node id="3859401986" visible="true" version="1" changeset="35577234" timestamp="2015-11-25T18:29:56Z" user="yopaseopor" uid="500572" lat="41.5225791" lon="0.6204484"/>
 <node id="3859401987" visible="true" version="1" changeset="35577234" timestamp="2015-11-25T18:29:56Z" user="yopaseopor" uid="500572" lat="41.5225910" lon="0.6180856"/>
 <node id="3859401988" visible="true" version="1" changeset="35577234" timestamp="2015-11-25T18:29:56Z" user="yopaseopor" uid="500572" lat="41.5226261" lon="0.6205319"/>
 <node id="3859401989" visible="true" version="1" changeset="35577234" timestamp="2015-11-25T18:29:56Z" user="yopaseopor" uid="500572" lat="41.5229970" lon="0.6211223"/>
 <node id="3859401990" visible="true" version="1" changeset="35577234" timestamp="2015-11-25T18:29:56Z" user="yopaseopor" uid="500572" lat="41.5231593" lon="0.6173129"/>
 <node id="3859401991" visible="true" version="1" changeset="35577234" timestamp="2015-11-25T18:29:56Z" user="yopaseopor" uid="500572" lat="41.5232355" lon="0.6188041"/>
 <node id="3859401992" visible="true" version="1" changeset="35577234" timestamp="2015-11-25T18:29:56Z" user="yopaseopor" uid="500572" lat="41.5233420" lon="0.6198005"/>
 <node id="3859401993" visible="true" version="2" changeset="92029593" timestamp="2020-10-06T07:56:04Z" user="jqngarcia" uid="5126253" lat="41.5232363" lon="0.6204057"/>
 <node id="3859401994" visible="true" version="1" changeset="35577234" timestamp="2015-11-25T18:29:56Z" user="yopaseopor" uid="500572" lat="41.5234131" lon="0.6193803"/>
 <node id="3859401995" visible="true" version="1" changeset="35577234" timestamp="2015-11-25T18:29:56Z" user="yopaseopor" uid="500572" lat="41.5235552" lon="0.6175434"/>
 <node id="7595973850" visible="true" version="1" changeset="86251316" timestamp="2020-06-05T15:15:37Z" user="jonashoffmann" uid="9965503" lat="41.5215977" lon="0.6246932"/>
 <node id="7595973851" visible="true" version="1" changeset="86251316" timestamp="2020-06-05T15:15:37Z" user="jonashoffmann" uid="9965503" lat="41.5215053" lon="0.6247924"/>
 <node id="7595973852" visible="true" version="1" changeset="86251316" timestamp="2020-06-05T15:15:37Z" user="jonashoffmann" uid="9965503" lat="41.5212482" lon="0.6248005"/>
 <node id="7595973853" visible="true" version="1" changeset="86251316" timestamp="2020-06-05T15:15:37Z" user="jonashoffmann" uid="9965503" lat="41.5211940" lon="0.6249802"/>
 <node id="7595973854" visible="true" version="1" changeset="86251316" timestamp="2020-06-05T15:15:37Z" user="jonashoffmann" uid="9965503" lat="41.5210193" lon="0.6249346"/>
 <node id="7595973855" visible="true" version="1" changeset="86251316" timestamp="2020-06-05T15:15:37Z" user="jonashoffmann" uid="9965503" lat="41.5210836" lon="0.6245054"/>
 <node id="7898188868" visible="true" version="1" changeset="90776562" timestamp="2020-09-11T20:09:22Z" user="caminsperfer" uid="10187213" lat="41.5224171" lon="0.6157945"/>
 <node id="7898188876" visible="true" version="1" changeset="90776562" timestamp="2020-09-11T20:09:22Z" user="caminsperfer" uid="10187213" lat="41.5230222" lon="0.6088271"/>
 <node id="7898206489" visible="true" version="1" changeset="90776562" timestamp="2020-09-11T20:09:22Z" user="caminsperfer" uid="10187213" lat="41.5222990" lon="0.6111103"/>
 <node id="7898206504" visible="true" version="1" changeset="90776562" timestamp="2020-09-11T20:09:22Z" user="caminsperfer" uid="10187213" lat="41.5223431" lon="0.6162241"/>
 <node id="7898206512" visible="true" version="1" changeset="90776562" timestamp="2020-09-11T20:09:22Z" user="caminsperfer" uid="10187213" lat="41.5229068" lon="0.6090390"/>
 <node id="7898206513" visible="true" version="1" changeset="90776562" timestamp="2020-09-11T20:09:22Z" user="caminsperfer" uid="10187213" lat="41.5232800" lon="0.6202794"/>
 <node id="7898206526" visible="true" version="1" changeset="90776562" timestamp="2020-09-11T20:09:22Z" user="caminsperfer" uid="10187213" lat="41.5222575" lon="0.6114273"/>
 <node id="7898206540" visible="true" version="1" changeset="90776562" timestamp="2020-09-11T20:09:22Z" user="caminsperfer" uid="10187213" lat="41.5222245" lon="0.6166199"/>
 <node id="7898206548" visible="true" version="1" changeset="90776562" timestamp="2020-09-11T20:09:22Z" user="caminsperfer" uid="10187213" lat="41.5228017" lon="0.6091983"/>
 <node id="7898206549" visible="true" version="1" changeset="90776562" timestamp="2020-09-11T20:09:22Z" user="caminsperfer" uid="10187213" lat="41.5231876" lon="0.6203650"/>
 <node id="7898206563" visible="true" version="1" changeset="90776562" timestamp="2020-09-11T20:09:22Z" user="caminsperfer" uid="10187213" lat="41.5222575" lon="0.6116956"/>
 <node id="7898206571" visible="true" version="1" changeset="90776562" timestamp="2020-09-11T20:09:22Z" user="caminsperfer" uid="10187213" lat="41.5238675" lon="0.6204002"/>
 <node id="7898206578" visible="true" version="1" changeset="90776562" timestamp="2020-09-11T20:09:22Z" user="caminsperfer" uid="10187213" lat="41.5220638" lon="0.6170654"/>
 <node id="7898206586" visible="true" version="1" changeset="90776562" timestamp="2020-09-11T20:09:22Z" user="caminsperfer" uid="10187213" lat="41.5227339" lon="0.6093712"/>
 <node id="7898206587" visible="true" version="1" changeset="90776562" timestamp="2020-09-11T20:09:22Z" user="caminsperfer" uid="10187213" lat="41.5232290" lon="0.6203157"/>
 <node id="7898206599" visible="true" version="1" changeset="90776562" timestamp="2020-09-11T20:09:22Z" user="caminsperfer" uid="10187213" lat="41.5222897" lon="0.6120463"/>
 <node id="7898206606" visible="true" version="1" changeset="90776562" timestamp="2020-09-11T20:09:22Z" user="caminsperfer" uid="10187213" lat="41.5232081" lon="0.6068193"/>
 <node id="7898206618" visible="true" version="1" changeset="90776562" timestamp="2020-09-11T20:09:22Z" user="caminsperfer" uid="10187213" lat="41.5227109" lon="0.6096106"/>
 <node id="7898206631" visible="true" version="1" changeset="90776562" timestamp="2020-09-11T20:09:22Z" user="caminsperfer" uid="10187213" lat="41.5227344" lon="0.6143256"/>
 <node id="7898206639" visible="true" version="1" changeset="90776562" timestamp="2020-09-11T20:09:22Z" user="caminsperfer" uid="10187213" lat="41.5231466" lon="0.6071222"/>
 <node id="7898206640" visible="true" version="1" changeset="90776562" timestamp="2020-09-11T20:09:22Z" user="caminsperfer" uid="10187213" lat="41.5242121" lon="0.6207811"/>
 <node id="7898206645" visible="true" version="1" changeset="90776562" timestamp="2020-09-11T20:09:22Z" user="caminsperfer" uid="10187213" lat="41.5219977" lon="0.6172820"/>
 <node id="7898206653" visible="true" version="1" changeset="90776562" timestamp="2020-09-11T20:09:22Z" user="caminsperfer" uid="10187213" lat="41.5227091" lon="0.6098288"/>
 <node id="7898206666" visible="true" version="1" changeset="90776562" timestamp="2020-09-11T20:09:22Z" user="caminsperfer" uid="10187213" lat="41.5227568" lon="0.6145161"/>
 <node id="7898206672" visible="true" version="1" changeset="90776562" timestamp="2020-09-11T20:09:22Z" user="caminsperfer" uid="10187213" lat="41.5231303" lon="0.6072917"/>
 <node id="7898206673" visible="true" version="1" changeset="90776562" timestamp="2020-09-11T20:09:22Z" user="caminsperfer" uid="10187213" lat="41.5241071" lon="0.6207130"/>
 <node id="7898206687" visible="true" version="1" changeset="90776562" timestamp="2020-09-11T20:09:22Z" user="caminsperfer" uid="10187213" lat="41.5226656" lon="0.6100298"/>
 <node id="7898206700" visible="true" version="1" changeset="90776562" timestamp="2020-09-11T20:09:22Z" user="caminsperfer" uid="10187213" lat="41.5227542" lon="0.6146958"/>
 <node id="7898206708" visible="true" version="1" changeset="90776562" timestamp="2020-09-11T20:09:22Z" user="caminsperfer" uid="10187213" lat="41.5231031" lon="0.6082356"/>
 <node id="7898206709" visible="true" version="1" changeset="90776562" timestamp="2020-09-11T20:09:22Z" user="caminsperfer" uid="10187213" lat="41.5240349" lon="0.6206575"/>
 <node id="7898206722" visible="true" version="1" changeset="90776562" timestamp="2020-09-11T20:09:22Z" user="caminsperfer" uid="10187213" lat="41.5225820" lon="0.6102114"/>
 <node id="7898206736" visible="true" version="1" changeset="90776562" timestamp="2020-09-11T20:09:22Z" user="caminsperfer" uid="10187213" lat="41.5226511" lon="0.6151666"/>
 <node id="7898206743" visible="true" version="1" changeset="90776562" timestamp="2020-09-11T20:09:22Z" user="caminsperfer" uid="10187213" lat="41.5230958" lon="0.6084709"/>
 <node id="7898206744" visible="true" version="1" changeset="90776562" timestamp="2020-09-11T20:09:22Z" user="caminsperfer" uid="10187213" lat="41.5239672" lon="0.6205053"/>
 <node id="7898206758" visible="true" version="1" changeset="90776562" timestamp="2020-09-11T20:09:22Z" user="caminsperfer" uid="10187213" lat="41.5224665" lon="0.6104928"/>
 <node id="7898206773" visible="true" version="1" changeset="90776562" timestamp="2020-09-11T20:09:22Z" user="caminsperfer" uid="10187213" lat="41.5224666" lon="0.6156441"/>
 <node id="7898206781" visible="true" version="1" changeset="90776562" timestamp="2020-09-11T20:09:22Z" user="caminsperfer" uid="10187213" lat="41.5230763" lon="0.6086794"/>
 <node id="7898206782" visible="true" version="1" changeset="90776562" timestamp="2020-09-11T20:09:22Z" user="caminsperfer" uid="10187213" lat="41.5239225" lon="0.6204302"/>
 <node id="7898206796" visible="true" version="1" changeset="90776562" timestamp="2020-09-11T20:09:22Z" user="caminsperfer" uid="10187213" lat="41.5223475" lon="0.6108594"/>
 <node id="7980098246" visible="true" version="1" changeset="92029593" timestamp="2020-10-06T07:56:04Z" user="jqngarcia" uid="5126253" lat="41.5234211" lon="0.6206095"/>
 <node id="7980098247" visible="true" version="1" changeset="92029593" timestamp="2020-10-06T07:56:04Z" user="jqngarcia" uid="5126253" lat="41.5233531" lon="0.6205820"/>
 <node id="7980098248" visible="true" version="1" changeset="92029593" timestamp="2020-10-06T07:56:04Z" user="jqngarcia" uid="5126253" lat="41.5233518" lon="0.6205934"/>
 <node id="7980098249" visible="true" version="1" changeset="92029593" timestamp="2020-10-06T07:56:04Z" user="jqngarcia" uid="5126253" lat="41.5232825" lon="0.6205773"/>
 <node id="7980098250" visible="true" version="1" changeset="92029593" timestamp="2020-10-06T07:56:04Z" user="jqngarcia" uid="5126253" lat="41.5232414" lon="0.6207383"/>
 <node id="7980098251" visible="true" version="1" changeset="92029593" timestamp="2020-10-06T07:56:04Z" user="jqngarcia" uid="5126253" lat="41.5233809" lon="0.6207933"/>
 <node id="7980098252" visible="true" version="1" changeset="92029593" timestamp="2020-10-06T07:56:04Z" user="jqngarcia" uid="5126253" lat="41.5234110" lon="0.6206699"/>
 <node id="7980098253" visible="true" version="1" changeset="92029593" timestamp="2020-10-06T07:56:04Z" user="jqngarcia" uid="5126253" lat="41.5235355" lon="0.6206940"/>
 <node id="7980098254" visible="true" version="1" changeset="92029593" timestamp="2020-10-06T07:56:04Z" user="jqngarcia" uid="5126253" lat="41.5235466" lon="0.6206363"/>
 <node id="7980098255" visible="true" version="1" changeset="92029593" timestamp="2020-10-06T07:56:04Z" user="jqngarcia" uid="5126253" lat="41.5237938" lon="0.6204215"/>
 <node id="7980098256" visible="true" version="1" changeset="92029593" timestamp="2020-10-06T07:56:04Z" user="jqngarcia" uid="5126253" lat="41.5237781" lon="0.6205909"/>
 <node id="7980098257" visible="true" version="1" changeset="92029593" timestamp="2020-10-06T07:56:04Z" user="jqngarcia" uid="5126253" lat="41.5236462" lon="0.6205691"/>
 <node id="7980098258" visible="true" version="1" changeset="92029593" timestamp="2020-10-06T07:56:04Z" user="jqngarcia" uid="5126253" lat="41.5236420" lon="0.6206152"/>
 <node id="7980098259" visible="true" version="1" changeset="92029593" timestamp="2020-10-06T07:56:04Z" user="jqngarcia" uid="5126253" lat="41.5235662" lon="0.6206026"/>
 <node id="7980098260" visible="true" version="1" changeset="92029593" timestamp="2020-10-06T07:56:04Z" user="jqngarcia" uid="5126253" lat="41.5235862" lon="0.6203871"/>
 <node id="7980098261" visible="true" version="1" changeset="92029593" timestamp="2020-10-06T07:56:04Z" user="jqngarcia" uid="5126253" lat="41.5234244" lon="0.6203349"/>
 <node id="7980098262" visible="true" version="1" changeset="92029593" timestamp="2020-10-06T07:56:04Z" user="jqngarcia" uid="5126253" lat="41.5235586" lon="0.6203560"/>
 <node id="7980098263" visible="true" version="1" changeset="92029593" timestamp="2020-10-06T07:56:04Z" user="jqngarcia" uid="5126253" lat="41.5235508" lon="0.6204443"/>
 <node id="7980098264" visible="true" version="1" changeset="92029593" timestamp="2020-10-06T07:56:04Z" user="jqngarcia" uid="5126253" lat="41.5234166" lon="0.6204232"/>
 <node id="7980098265" visible="true" version="1" changeset="92029593" timestamp="2020-10-06T07:56:04Z" user="jqngarcia" uid="5126253" lat="41.5232303" lon="0.6204472"/>
 <node id="7980098266" visible="true" version="1" changeset="92029593" timestamp="2020-10-06T07:56:04Z" user="jqngarcia" uid="5126253" lat="41.5231901" lon="0.6204379"/>
 <node id="7980098267" visible="true" version="1" changeset="92029593" timestamp="2020-10-06T07:56:04Z" user="jqngarcia" uid="5126253" lat="41.5231861" lon="0.6204861"/>
 <node id="7980098268" visible="true" version="1" changeset="92029593" timestamp="2020-10-06T07:56:04Z" user="jqngarcia" uid="5126253" lat="41.5235506" lon="0.6205519"/>
 <node id="7980098269" visible="true" version="1" changeset="92029593" timestamp="2020-10-06T07:56:04Z" user="jqngarcia" uid="5126253" lat="41.5235606" lon="0.6204714"/>
 <way id="45954310" visible="true" version="8" changeset="85131494" timestamp="2020-05-13T08:39:13Z" user="lanxana" uid="3735848">
  <nd ref="585252799"/>
  <nd ref="1626728376"/>
  <nd ref="2300250822"/>
  <nd ref="1626728230"/>
  <tag k="highway" v="tertiary"/>
  <tag k="name" v="Avinguda les Garrigues"/>
  <tag k="oneway" v="no"/>
  <tag k="ref" v="L-700"/>
 </way>
 <way id="149758234" visible="true" version="2" changeset="90776562" timestamp="2020-09-11T20:09:22Z" user="caminsperfer" uid="10187213">
  <nd ref="1627087970"/>
  <nd ref="1627089035"/>
  <nd ref="1627088915"/>
  <nd ref="1627088899"/>
  <nd ref="1627087939"/>
  <nd ref="1627087862"/>
  <nd ref="7898206513"/>
  <nd ref="7898206587"/>
  <nd ref="7898206549"/>
  <nd ref="1627089142"/>
  <nd ref="585252799"/>
  <tag k="highway" v="track"/>
 </way>
 <way id="220953503" visible="true" version="9" changeset="84045180" timestamp="2020-04-24T07:46:08Z" user="jqngarcia" uid="5126253">
  <nd ref="1626728230"/>
  <nd ref="2300250820"/>
  <nd ref="1626728306"/>
  <nd ref="3859401984"/>
  <nd ref="585252800"/>
  <nd ref="3859401978"/>
  <nd ref="2300250778"/>
  <nd ref="2300250774"/>
  <nd ref="2300250770"/>
  <nd ref="2300250750"/>
  <nd ref="2300250746"/>
  <nd ref="1626728200"/>
  <nd ref="3859401844"/>
  <nd ref="1626728349"/>
  <nd ref="599552812"/>
  <nd ref="1626728202"/>
  <nd ref="1626728461"/>
  <nd ref="3752918432"/>
  <nd ref="2300200677"/>
  <nd ref="2300200678"/>
  <nd ref="2300200679"/>
  <nd ref="2300200680"/>
  <nd ref="2300200681"/>
  <nd ref="2300200682"/>
  <nd ref="2300200683"/>
  <nd ref="2300200684"/>
  <nd ref="2300200685"/>
  <nd ref="2300200686"/>
  <nd ref="3789803864"/>
  <nd ref="2300200687"/>
  <tag k="change:lanes:backward" v="no"/>
  <tag k="change:lanes:forward" v="no"/>
  <tag k="highway" v="tertiary"/>
  <tag k="lanes" v="2"/>
  <tag k="lanes:backward" v="1"/>
  <tag k="lanes:forward" v="1"/>
  <tag k="name" v="Avinguda les Garrigues"/>
  <tag k="oneway" v="no"/>
  <tag k="overtaking" v="no"/>
  <tag k="ref" v="L-700"/>
  <tag k="width" v="6"/>
 </way>
 <way id="220960033" visible="true" version="3" changeset="84045180" timestamp="2020-04-24T07:46:08Z" user="jqngarcia" uid="5126253">
  <nd ref="2300250849"/>
  <nd ref="3789804078"/>
  <nd ref="585252791"/>
  <nd ref="585252792"/>
  <nd ref="2300250835"/>
  <nd ref="585252793"/>
  <nd ref="585252794"/>
  <nd ref="585252795"/>
  <nd ref="585252796"/>
  <nd ref="585252797"/>
  <nd ref="585252798"/>
  <nd ref="585252799"/>
  <tag k="change:lanes:backward" v="no"/>
  <tag k="change:lanes:forward" v="no"/>
  <tag k="highway" v="tertiary"/>
  <tag k="lanes" v="2"/>
  <tag k="lanes:backward" v="1"/>
  <tag k="lanes:forward" v="1"/>
  <tag k="oneway" v="no"/>
  <tag k="overtaking" v="no"/>
  <tag k="ref" v="L-700"/>
  <tag k="width" v="8"/>
 </way>
 <way id="220960034" visible="true" version="2" changeset="35577234" timestamp="2015-11-25T18:30:00Z" user="yopaseopor" uid="500572">
  <nd ref="2300250813"/>
  <nd ref="2300250804"/>
  <nd ref="2300250801"/>
  <nd ref="2300250794"/>
  <nd ref="2300250790"/>
  <nd ref="2300250784"/>
  <nd ref="2300250776"/>
  <nd ref="3859401970"/>
  <nd ref="2300250768"/>
  <nd ref="2300250765"/>
  <nd ref="2300250760"/>
  <tag k="highway" v="living_street"/>
  <tag k="name" v="Carrer del Calvari"/>
 </way>
 <way id="220960035" visible="true" version="2" changeset="35577234" timestamp="2015-11-25T18:30:00Z" user="yopaseopor" uid="500572">
  <nd ref="2300250730"/>
  <nd ref="2300250728"/>
  <nd ref="2300250723"/>
  <nd ref="2300250720"/>
  <nd ref="2300250721"/>
  <nd ref="2300250727"/>
  <nd ref="2300250726"/>
  <nd ref="2300250724"/>
  <nd ref="2300250725"/>
  <nd ref="2300250722"/>
  <nd ref="2300250719"/>
  <nd ref="599552805"/>
  <tag k="highway" v="track"/>
  <tag k="tracktype" v="grade2"/>
 </way>
 <way id="220960036" visible="true" version="2" changeset="35577234" timestamp="2015-11-25T18:29:59Z" user="yopaseopor" uid="500572">
  <nd ref="2300250773"/>
  <nd ref="2300250763"/>
  <nd ref="2300250758"/>
  <nd ref="2300250759"/>
  <nd ref="2300250761"/>
  <nd ref="2300250764"/>
  <nd ref="2300250768"/>
  <tag k="highway" v="living_street"/>
  <tag k="name" v="Carrer de Sant Salvador"/>
 </way>
 <way id="220960037" visible="true" version="2" changeset="35577234" timestamp="2015-11-25T18:30:01Z" user="yopaseopor" uid="500572">
  <nd ref="2300250822"/>
  <nd ref="2300250825"/>
  <tag k="highway" v="living_street"/>
 </way>
 <way id="220960038" visible="true" version="2" changeset="35577234" timestamp="2015-11-25T18:30:00Z" user="yopaseopor" uid="500572">
  <nd ref="2300250773"/>
  <nd ref="2300250787"/>
  <tag k="highway" v="residential"/>
  <tag k="name" v="Carrer del Bisbe Massot"/>
 </way>
 <way id="220960040" visible="true" version="2" changeset="35577234" timestamp="2015-11-25T18:30:00Z" user="yopaseopor" uid="500572">
  <nd ref="2300250770"/>
  <nd ref="2300250775"/>
  <nd ref="2300250755"/>
  <tag k="highway" v="residential"/>
  <tag k="name" v="Plaça de la Bassa"/>
 </way>
 <way id="220960041" visible="true" version="2" changeset="35577234" timestamp="2015-11-25T18:30:00Z" user="yopaseopor" uid="500572">
  <nd ref="2300250754"/>
  <nd ref="2300250747"/>
  <nd ref="2300250740"/>
  <nd ref="2300250733"/>
  <nd ref="2300250730"/>
  <nd ref="1626728200"/>
  <tag k="highway" v="living_street"/>
  <tag k="name" v="Carrer de les Eres"/>
 </way>
 <way id="220960042" visible="true" version="2" changeset="35577234" timestamp="2015-11-25T18:29:59Z" user="yopaseopor" uid="500572">
  <nd ref="2300250775"/>
  <nd ref="2300250780"/>
  <nd ref="2300250781"/>
  <nd ref="2300250782"/>
  <tag k="highway" v="living_street"/>
  <tag k="name" v="Carrer Verge de Montserrat"/>
 </way>
 <way id="220960043" visible="true" version="2" changeset="35577234" timestamp="2015-11-25T18:30:00Z" user="yopaseopor" uid="500572">
  <nd ref="2300250743"/>
  <nd ref="2300250769"/>
  <nd ref="2300250772"/>
  <nd ref="2300250778"/>
  <tag k="highway" v="living_street"/>
  <tag k="name" v="Travessera de la Bassa"/>
 </way>
 <way id="220960049" visible="true" version="2" changeset="35577234" timestamp="2015-11-25T18:29:59Z" user="yopaseopor" uid="500572">
  <nd ref="2300250755"/>
  <nd ref="2300250757"/>
  <nd ref="2300250762"/>
  <tag k="highway" v="living_street"/>
  <tag k="name" v="Carrer de la Democràcia"/>
 </way>
 <way id="220960053" visible="true" version="2" changeset="35577234" timestamp="2015-11-25T18:29:59Z" user="yopaseopor" uid="500572">
  <nd ref="2300250772"/>
  <nd ref="2300250779"/>
  <nd ref="2300250783"/>
  <nd ref="2300250777"/>
  <nd ref="2300250785"/>
  <tag k="highway" v="living_street"/>
  <tag k="name" v="Camí de Sunyer"/>
 </way>
 <way id="220960055" visible="true" version="7" changeset="61608616" timestamp="2018-08-13T01:59:09Z" user="Jose Luis Infante" uid="126203">
  <nd ref="2300250789"/>
  <nd ref="2300250782"/>
  <nd ref="2300250762"/>
  <nd ref="2300250754"/>
  <nd ref="2300250756"/>
  <nd ref="2300250773"/>
  <nd ref="2300250789"/>
  <tag k="highway" v="living_street"/>
  <tag k="name" v="Plaça Major"/>
 </way>
 <way id="220960056" visible="true" version="2" changeset="35577234" timestamp="2015-11-25T18:29:59Z" user="yopaseopor" uid="500572">
  <nd ref="2300250801"/>
  <nd ref="2300250791"/>
  <nd ref="3859401972"/>
  <nd ref="2300250771"/>
  <nd ref="2300250766"/>
  <nd ref="2300250767"/>
  <nd ref="2300250761"/>
  <tag k="highway" v="living_street"/>
  <tag k="name" v="Carrer de Pi i Margall"/>
 </way>
 <way id="220960058" visible="true" version="2" changeset="35577234" timestamp="2015-11-25T18:30:01Z" user="yopaseopor" uid="500572">
  <nd ref="2300250743"/>
  <nd ref="2300250742"/>
  <nd ref="2300250744"/>
  <nd ref="2300250737"/>
  <tag k="highway" v="living_street"/>
 </way>
 <way id="220960059" visible="true" version="2" changeset="35577234" timestamp="2015-11-25T18:29:59Z" user="yopaseopor" uid="500572">
  <nd ref="2300250815"/>
  <nd ref="2300250814"/>
  <nd ref="2300250802"/>
  <nd ref="2300250797"/>
  <nd ref="2300250792"/>
  <tag k="highway" v="living_street"/>
  <tag k="name" v="Carrer de la Vileta"/>
 </way>
 <way id="220960061" visible="true" version="2" changeset="35577234" timestamp="2015-11-25T18:30:00Z" user="yopaseopor" uid="500572">
  <nd ref="2300250813"/>
  <nd ref="2300250811"/>
  <nd ref="2300250805"/>
  <nd ref="2300250806"/>
  <nd ref="2300250807"/>
  <nd ref="585252797"/>
  <tag k="highway" v="living_street"/>
  <tag k="name" v="Carrer del Portal"/>
 </way>
 <way id="220960062" visible="true" version="2" changeset="35577234" timestamp="2015-11-25T18:30:00Z" user="yopaseopor" uid="500572">
  <nd ref="2300250813"/>
  <nd ref="2300250816"/>
  <nd ref="2300250818"/>
  <nd ref="2300250819"/>
  <nd ref="2300250821"/>
  <nd ref="1626728230"/>
  <tag k="highway" v="living_street"/>
  <tag k="name" v="Carrer del Portal"/>
 </way>
 <way id="220960063" visible="true" version="2" changeset="35577234" timestamp="2015-11-25T18:29:59Z" user="yopaseopor" uid="500572">
  <nd ref="2300250820"/>
  <nd ref="2300250823"/>
  <nd ref="2300250824"/>
  <nd ref="2300250826"/>
  <nd ref="2300250827"/>
  <nd ref="2300250828"/>
  <tag k="highway" v="living_street"/>
  <tag k="name" v="Carrer de les Aguiles"/>
 </way>
 <way id="220960064" visible="true" version="2" changeset="35577234" timestamp="2015-11-25T18:29:59Z" user="yopaseopor" uid="500572">
  <nd ref="2300250808"/>
  <nd ref="2300250812"/>
  <nd ref="3859401988"/>
  <nd ref="2300250809"/>
  <nd ref="2300250803"/>
  <tag k="highway" v="living_street"/>
  <tag k="name" v="Carrer de l'Església"/>
 </way>
 <way id="220960065" visible="true" version="2" changeset="35577234" timestamp="2015-11-25T18:30:01Z" user="yopaseopor" uid="500572">
  <nd ref="2300250722"/>
  <nd ref="2300250729"/>
  <nd ref="2300250731"/>
  <nd ref="2300250732"/>
  <nd ref="3859401852"/>
  <nd ref="3859401854"/>
  <tag k="highway" v="track"/>
  <tag k="tracktype" v="grade2"/>
 </way>
 <way id="220960066" visible="true" version="2" changeset="35577234" timestamp="2015-11-25T18:30:00Z" user="yopaseopor" uid="500572">
  <nd ref="2300250774"/>
  <nd ref="2300250786"/>
  <nd ref="2300250788"/>
  <nd ref="2300250793"/>
  <nd ref="2300250798"/>
  <tag k="highway" v="living_street"/>
  <tag k="name" v="Carrer del Forn"/>
 </way>
 <way id="220960067" visible="true" version="2" changeset="35577234" timestamp="2015-11-25T18:30:00Z" user="yopaseopor" uid="500572">
  <nd ref="2300250759"/>
  <nd ref="2300250752"/>
  <nd ref="2300250751"/>
  <nd ref="2300250749"/>
  <nd ref="2300250748"/>
  <nd ref="2300250740"/>
  <tag k="highway" v="living_street"/>
  <tag k="name" v="Carrer del Raval"/>
 </way>
 <way id="382722775" visible="true" version="4" changeset="73304884" timestamp="2019-08-13T12:03:08Z" user="thatmapper69420" uid="9863543">
  <nd ref="3859401973"/>
  <nd ref="3859401975"/>
  <nd ref="3859401968"/>
  <nd ref="3859401963"/>
  <nd ref="3859401855"/>
  <nd ref="3859401851"/>
  <nd ref="3859401845"/>
  <nd ref="3859401842"/>
  <nd ref="3859401837"/>
  <nd ref="3859401840"/>
  <nd ref="3859401838"/>
  <nd ref="3859401834"/>
  <nd ref="3859401833"/>
  <nd ref="3859401832"/>
  <nd ref="3859401831"/>
  <nd ref="3859401828"/>
  <nd ref="3859401827"/>
  <nd ref="3859401826"/>
  <nd ref="3859401825"/>
  <nd ref="3859401824"/>
  <nd ref="3859401821"/>
  <nd ref="3859401830"/>
  <nd ref="3859401829"/>
  <nd ref="3859401823"/>
  <nd ref="3859401822"/>
  <nd ref="3859401835"/>
  <nd ref="3859401839"/>
  <nd ref="3859401848"/>
  <nd ref="3859401850"/>
  <nd ref="3859401849"/>
  <nd ref="3859401962"/>
  <nd ref="3859401982"/>
  <nd ref="3859401976"/>
  <nd ref="3859401987"/>
  <nd ref="3859401990"/>
  <nd ref="3859401995"/>
  <nd ref="3859401991"/>
  <nd ref="3859401994"/>
  <nd ref="3859401992"/>
  <nd ref="3859401989"/>
  <nd ref="3859401983"/>
  <nd ref="3859401977"/>
  <nd ref="3859401973"/>
  <tag k="capital" v="8"/>
  <tag k="ele" v="244"/>
  <tag k="landuse" v="residential"/>
  <tag k="name" v="Alfés"/>
  <tag k="place" v="village"/>
  <tag k="population" v="337"/>
  <tag k="population:date" v="2009"/>
  <tag k="postal_code" v="25161"/>
  <tag k="ref:ine" v="25014000100"/>
  <tag k="source" v="Instituto Geográfico Nacional"/>
  <tag k="source:date" v="2011-06"/>
  <tag k="source:ele" v="MDT5"/>
  <tag k="source:file" v="http://centrodedescargas.cnig.es/CentroDescargas/equipamiento/BD_Municipios-Entidades.zip"/>
  <tag k="source:name" v="Nomenclátor Geográfico de Municipios y Entidades de Población"/>
  <tag k="website" v="http://alfes.ddl.net/layout_index.php"/>
  <tag k="wikidata" v="Q1772312"/>
  <tag k="wikipedia" v="ca:Alfés"/>
 </way>
 <way id="382722778" visible="true" version="1" changeset="35577234" timestamp="2015-11-25T18:29:57Z" user="yopaseopor" uid="500572">
  <nd ref="2300250798"/>
  <nd ref="3859401985"/>
  <nd ref="3859401986"/>
  <nd ref="3859401988"/>
  <tag k="highway" v="living_street"/>
  <tag k="name" v="Carrer de l'Església"/>
 </way>
 <way id="382722779" visible="true" version="1" changeset="35577234" timestamp="2015-11-25T18:29:57Z" user="yopaseopor" uid="500572">
  <nd ref="3859401979"/>
  <nd ref="2300250788"/>
  <tag k="highway" v="living_street"/>
  <tag k="name" v="Carrer de la Vileta"/>
 </way>
 <way id="382722780" visible="true" version="1" changeset="35577234" timestamp="2015-11-25T18:29:57Z" user="yopaseopor" uid="500572">
  <nd ref="2300250803"/>
  <nd ref="2300250810"/>
  <nd ref="2300250814"/>
  <nd ref="2300250817"/>
  <tag k="highway" v="living_street"/>
  <tag k="name" v="Carrer de la Vileta"/>
 </way>
 <way id="382722781" visible="true" version="1" changeset="35577234" timestamp="2015-11-25T18:29:57Z" user="yopaseopor" uid="500572">
  <nd ref="2300250792"/>
  <nd ref="3859401981"/>
  <nd ref="3859401980"/>
  <nd ref="3859401979"/>
  <tag k="highway" v="steps"/>
  <tag k="name" v="Carrer de la Vileta"/>
 </way>
 <way id="382722782" visible="true" version="1" changeset="35577234" timestamp="2015-11-25T18:29:57Z" user="yopaseopor" uid="500572">
  <nd ref="2300250813"/>
  <nd ref="2300250808"/>
  <nd ref="2300250800"/>
  <nd ref="2300250795"/>
  <nd ref="2300250789"/>
  <tag k="highway" v="living_street"/>
  <tag k="name" v="Carrer del Batlle de Porqueres"/>
 </way>
 <way id="382722783" visible="true" version="1" changeset="35577234" timestamp="2015-11-25T18:29:57Z" user="yopaseopor" uid="500572">
  <nd ref="2300250798"/>
  <nd ref="2300250796"/>
  <tag k="highway" v="steps"/>
  <tag k="name" v="Carrer del Forn"/>
 </way>
 <way id="382722785" visible="true" version="1" changeset="35577234" timestamp="2015-11-25T18:29:58Z" user="yopaseopor" uid="500572">
  <nd ref="2300250796"/>
  <nd ref="2300250799"/>
  <nd ref="2300250800"/>
  <tag k="highway" v="living_street"/>
  <tag k="name" v="Carrer del Forn"/>
 </way>
 <way id="382722786" visible="true" version="6" changeset="61590070" timestamp="2018-08-12T14:16:28Z" user="pedrobv" uid="581863">
  <nd ref="3859401971"/>
  <nd ref="3859401960"/>
  <nd ref="3859401959"/>
  <nd ref="3859401961"/>
  <nd ref="3859401966"/>
  <nd ref="3859401969"/>
  <nd ref="3859401974"/>
  <nd ref="3859401971"/>
  <tag k="area" v="yes"/>
  <tag k="layer" v="1"/>
  <tag k="leisure" v="garden"/>
  <tag k="name" v="Plaça Major"/>
  <tag k="name:ca" v="Plaça Major"/>
  <tag k="name:en" v="Major Square"/>
  <tag k="name:es" v="Plaza Mayor"/>
 </way>
 <way id="382722787" visible="true" version="1" changeset="35577234" timestamp="2015-11-25T18:29:58Z" user="yopaseopor" uid="500572">
  <nd ref="2300250750"/>
  <nd ref="2300250755"/>
  <tag k="highway" v="residential"/>
  <tag k="name" v="Plaça de la Bassa"/>
 </way>
 <way id="382722788" visible="true" version="1" changeset="35577234" timestamp="2015-11-25T18:29:58Z" user="yopaseopor" uid="500572">
  <nd ref="3859401965"/>
  <nd ref="3859401856"/>
  <nd ref="3859401957"/>
  <nd ref="3859401958"/>
  <nd ref="3859401964"/>
  <nd ref="3859401967"/>
  <nd ref="3859401965"/>
  <tag k="area" v="yes"/>
  <tag k="highway" v="pedestrian"/>
  <tag k="name" v="Plaça de la Bassa"/>
 </way>
 <way id="382722789" visible="true" version="1" changeset="35577234" timestamp="2015-11-25T18:29:58Z" user="yopaseopor" uid="500572">
  <nd ref="2300250746"/>
  <nd ref="2300250745"/>
  <nd ref="2300250743"/>
  <tag k="highway" v="living_street"/>
  <tag k="name" v="Travessera de la Bassa"/>
 </way>
 <way id="382722790" visible="true" version="1" changeset="35577234" timestamp="2015-11-25T18:29:58Z" user="yopaseopor" uid="500572">
  <nd ref="3859401844"/>
  <nd ref="3859401847"/>
  <nd ref="3859401846"/>
  <nd ref="3859401843"/>
  <nd ref="3859401841"/>
  <tag k="highway" v="track"/>
  <tag k="tracktype" v="grade2"/>
 </way>
 <way id="382722791" visible="true" version="1" changeset="35577234" timestamp="2015-11-25T18:29:58Z" user="yopaseopor" uid="500572">
  <nd ref="2300250768"/>
  <nd ref="2300250753"/>
  <nd ref="2300250741"/>
  <nd ref="3859401854"/>
  <nd ref="2300250736"/>
  <nd ref="2300250739"/>
  <nd ref="2300250738"/>
  <tag k="highway" v="track"/>
  <tag k="tracktype" v="grade2"/>
 </way>
 <way id="813200127" visible="true" version="1" changeset="86251316" timestamp="2020-06-05T15:15:37Z" user="jonashoffmann" uid="9965503">
  <nd ref="3859401853"/>
  <nd ref="7595973850"/>
  <nd ref="7595973851"/>
  <nd ref="7595973852"/>
  <nd ref="7595973853"/>
  <nd ref="7595973854"/>
  <nd ref="7595973855"/>
  <nd ref="3859401853"/>
  <tag k="amenity" v="grave_yard"/>
 </way>
 <way id="846545162" visible="true" version="1" changeset="90776562" timestamp="2020-09-11T20:09:22Z" user="caminsperfer" uid="10187213">
  <nd ref="1627087939"/>
  <nd ref="7898206571"/>
  <nd ref="7898206782"/>
  <nd ref="7898206744"/>
  <nd ref="7898206709"/>
  <nd ref="7898206673"/>
  <nd ref="7898206640"/>
  <nd ref="1627088892"/>
  <tag k="highway" v="track"/>
 </way>
 <way id="846545163" visible="true" version="1" changeset="90776562" timestamp="2020-09-11T20:09:22Z" user="caminsperfer" uid="10187213">
  <nd ref="7898206645"/>
  <nd ref="7898206578"/>
  <nd ref="7898206540"/>
  <nd ref="7898206504"/>
  <nd ref="7898188868"/>
  <nd ref="7898206773"/>
  <nd ref="7898206736"/>
  <nd ref="7898206700"/>
  <nd ref="7898206666"/>
  <nd ref="7898206631"/>
  <nd ref="7898206599"/>
  <nd ref="7898206563"/>
  <nd ref="7898206526"/>
  <nd ref="7898206489"/>
  <nd ref="7898206796"/>
  <nd ref="7898206758"/>
  <nd ref="7898206722"/>
  <nd ref="7898206687"/>
  <nd ref="7898206653"/>
  <nd ref="7898206618"/>
  <nd ref="7898206586"/>
  <nd ref="7898206548"/>
  <nd ref="7898206512"/>
  <nd ref="7898188876"/>
  <nd ref="7898206781"/>
  <nd ref="7898206743"/>
  <nd ref="7898206708"/>
  <nd ref="7898206672"/>
  <nd ref="7898206639"/>
  <nd ref="7898206606"/>
  <nd ref="1627088390"/>
  <tag k="highway" v="track"/>
 </way>
 <way id="855778485" visible="true" version="1" changeset="92029593" timestamp="2020-10-06T07:56:04Z" user="jqngarcia" uid="5126253">
  <nd ref="7980098254"/>
  <nd ref="7980098253"/>
  <nd ref="7980098252"/>
  <nd ref="7980098251"/>
  <nd ref="7980098250"/>
  <nd ref="7980098249"/>
  <nd ref="7980098248"/>
  <nd ref="7980098247"/>
  <nd ref="7980098246"/>
  <nd ref="7980098254"/>
  <tag k="building" v="farm"/>
 </way>
 <way id="855778486" visible="true" version="1" changeset="92029593" timestamp="2020-10-06T07:56:04Z" user="jqngarcia" uid="5126253">
  <nd ref="7980098260"/>
  <nd ref="7980098259"/>
  <nd ref="7980098258"/>
  <nd ref="7980098257"/>
  <nd ref="7980098256"/>
  <nd ref="7980098255"/>
  <nd ref="7980098260"/>
  <tag k="building" v="farm"/>
 </way>
 <way id="855778487" visible="true" version="1" changeset="92029593" timestamp="2020-10-06T07:56:04Z" user="jqngarcia" uid="5126253">
  <nd ref="7980098264"/>
  <nd ref="7980098263"/>
  <nd ref="7980098262"/>
  <nd ref="7980098261"/>
  <nd ref="7980098264"/>
  <tag k="building" v="farm"/>
 </way>
 <way id="855778488" visible="true" version="1" changeset="92029593" timestamp="2020-10-06T07:56:04Z" user="jqngarcia" uid="5126253">
  <nd ref="3859401993"/>
  <nd ref="7980098269"/>
  <nd ref="7980098268"/>
  <nd ref="7980098267"/>
  <nd ref="7980098266"/>
  <nd ref="7980098265"/>
  <nd ref="3859401993"/>
  <tag k="building" v="farm"/>
 </way>
 <relation id="343637" visible="true" version="13" changeset="72354966" timestamp="2019-07-17T15:36:07Z" user="Juan_Carlos_G_F-imports" uid="2802925">
  <member type="node" ref="585252902" role="admin_centre"/>
  <member type="way" ref="45361263" role="outer"/>
  <member type="way" ref="45358505" role="outer"/>
  <member type="way" ref="45361265" role="outer"/>
  <member type="way" ref="45361266" role="outer"/>
  <member type="way" ref="45361264" role="outer"/>
  <member type="way" ref="45352086" role="outer"/>
  <member type="way" ref="45361248" role="outer"/>
  <tag k="admin_level" v="8"/>
  <tag k="boundary" v="administrative"/>
  <tag k="idee:name" v="Alfés"/>
  <tag k="ine:municipio" v="25014"/>
  <tag k="name" v="Alfés"/>
  <tag k="name:ca" v="Alfés"/>
  <tag k="population" v="337"/>
  <tag k="population:date" v="2009"/>
  <tag k="postal_code" v="25161"/>
  <tag k="source" v="BDLL25, EGRN, Instituto Geográfico Nacional"/>
  <tag k="type" v="boundary"/>
  <tag k="wikidata" v="Q1772312"/>
  <tag k="wikipedia" v="es:Alfés"/>
 </relation>
 <relation id="2819857" visible="true" version="5" changeset="72354966" timestamp="2019-07-17T15:36:07Z" user="Juan_Carlos_G_F-imports" uid="2802925">
  <member type="node" ref="124083658" role="admin_centre"/>
  <member type="way" ref="45361233" role="outer"/>
  <member type="way" ref="45361232" role="outer"/>
  <member type="way" ref="45364899" role="outer"/>
  <member type="way" ref="45317118" role="outer"/>
  <member type="way" ref="45317121" role="outer"/>
  <member type="way" ref="45361227" role="outer"/>
  <member type="way" ref="45361226" role="outer"/>
  <member type="way" ref="45375668" role="outer"/>
  <member type="way" ref="45374702" role="outer"/>
  <member type="way" ref="45374701" role="outer"/>
  <member type="way" ref="45374703" role="outer"/>
  <member type="way" ref="45366428" role="outer"/>
  <member type="way" ref="45361238" role="outer"/>
  <member type="way" ref="45335194" role="outer"/>
  <member type="way" ref="45335195" role="outer"/>
  <member type="way" ref="45335196" role="outer"/>
  <member type="way" ref="45335245" role="outer"/>
  <member type="way" ref="45335246" role="outer"/>
  <member type="way" ref="45335247" role="outer"/>
  <member type="way" ref="45342436" role="outer"/>
  <member type="way" ref="45360919" role="outer"/>
  <member type="way" ref="45370060" role="outer"/>
  <member type="way" ref="45370062" role="outer"/>
  <member type="way" ref="45370063" role="outer"/>
  <member type="way" ref="45371556" role="outer"/>
  <member type="way" ref="45327682" role="outer"/>
  <member type="way" ref="45327689" role="outer"/>
  <member type="way" ref="45338064" role="outer"/>
  <member type="way" ref="45338055" role="outer"/>
  <member type="way" ref="45375137" role="outer"/>
  <member type="way" ref="45375135" role="outer"/>
  <member type="way" ref="45375129" role="outer"/>
  <member type="way" ref="45361244" role="outer"/>
  <member type="way" ref="45361245" role="outer"/>
  <member type="way" ref="45361263" role="outer"/>
  <member type="way" ref="45358503" role="outer"/>
  <member type="way" ref="45314936" role="outer"/>
  <member type="way" ref="45314937" role="outer"/>
  <member type="way" ref="45314938" role="outer"/>
  <member type="way" ref="45339131" role="outer"/>
  <member type="way" ref="45355967" role="outer"/>
  <member type="way" ref="45355959" role="outer"/>
  <member type="way" ref="45355957" role="outer"/>
  <member type="way" ref="45355961" role="outer"/>
  <member type="way" ref="45318323" role="outer"/>
  <member type="way" ref="45318320" role="outer"/>
  <member type="way" ref="45318324" role="outer"/>
  <member type="way" ref="45318321" role="outer"/>
  <member type="way" ref="45359034" role="outer"/>
  <member type="way" ref="45359031" role="outer"/>
  <member type="way" ref="45342393" role="outer"/>
  <member type="way" ref="45355954" role="outer"/>
  <member type="way" ref="45355955" role="outer"/>
  <member type="way" ref="45352992" role="outer"/>
  <member type="way" ref="45361258" role="outer"/>
  <member type="way" ref="45382949" role="outer"/>
  <member type="way" ref="45361262" role="outer"/>
  <member type="way" ref="45361234" role="outer"/>
  <member type="way" ref="45339196" role="outer"/>
  <member type="way" ref="45318329" role="outer"/>
  <member type="way" ref="45355962" role="outer"/>
  <member type="relation" ref="343316" role="subarea"/>
  <member type="relation" ref="348141" role="subarea"/>
  <member type="relation" ref="348144" role="subarea"/>
  <member type="relation" ref="343633" role="subarea"/>
  <member type="relation" ref="343632" role="subarea"/>
  <member type="relation" ref="343631" role="subarea"/>
  <member type="relation" ref="343630" role="subarea"/>
  <member type="relation" ref="343637" role="subarea"/>
  <member type="relation" ref="343635" role="subarea"/>
  <member type="relation" ref="343629" role="subarea"/>
  <member type="relation" ref="347866" role="subarea"/>
  <member type="relation" ref="347867" role="subarea"/>
  <member type="relation" ref="347865" role="subarea"/>
  <member type="relation" ref="343323" role="subarea"/>
  <member type="relation" ref="343320" role="subarea"/>
  <member type="relation" ref="344259" role="subarea"/>
  <member type="relation" ref="343962" role="subarea"/>
  <member type="relation" ref="345920" role="subarea"/>
  <member type="relation" ref="346076" role="subarea"/>
  <member type="relation" ref="346348" role="subarea"/>
  <member type="relation" ref="346345" role="subarea"/>
  <member type="relation" ref="342141" role="subarea"/>
  <member type="relation" ref="342139" role="subarea"/>
  <member type="relation" ref="346683" role="subarea"/>
  <member type="relation" ref="342836" role="subarea"/>
  <member type="relation" ref="344947" role="subarea"/>
  <member type="relation" ref="344948" role="subarea"/>
  <member type="relation" ref="347354" role="subarea"/>
  <member type="relation" ref="347350" role="subarea"/>
  <member type="relation" ref="342730" role="subarea"/>
  <member type="relation" ref="342729" role="subarea"/>
  <member type="relation" ref="342731" role="subarea"/>
  <member type="relation" ref="343010" role="subarea"/>
  <member type="relation" ref="347638" role="subarea"/>
  <member type="relation" ref="347635" role="subarea"/>
  <member type="relation" ref="343011" role="subarea"/>
  <member type="relation" ref="343352" role="subarea"/>
  <member type="relation" ref="343347" role="subarea"/>
  <tag k="addr:country_code" v="ES"/>
  <tag k="admin_level" v="7"/>
  <tag k="boundary" v="administrative"/>
  <tag k="idescat:comarca" v="33"/>
  <tag k="name" v="Segrià"/>
  <tag k="name:an" v="Segrián"/>
  <tag k="name:ca" v="Segrià"/>
  <tag k="name:es" v="Segriá"/>
  <tag k="name:fr" v="Ségria"/>
  <tag k="name:kk" v="Сегрия"/>
  <tag k="name:oc" v="Segrià"/>
  <tag k="name:ru" v="Сегрия"/>
  <tag k="name:uk" v="Саґрія"/>
  <tag k="type" v="boundary"/>
  <tag k="website" v="http://www.segria.cat/"/>
  <tag k="wikidata" v="Q12727"/>
  <tag k="wikipedia" v="ca:Segrià"/>
 </relation>
 <relation id="11267539" visible="true" version="1" changeset="87498800" timestamp="2020-07-03T10:44:31Z" user="Marc Roca-Musach" uid="11358904">
  <member type="way" ref="220953501" role="from"/>
  <member type="node" ref="2300200687" role="via"/>
  <member type="way" ref="220953502" role="to"/>
  <tag k="restriction" v="no_left_turn"/>
  <tag k="type" v="restriction"/>
 </relation>
</osm>
